{
    "loggingIn": {
      "output": {
        "quarterlyPerformance": "Quarterly Performance"
    }
  },
  
    "accounts": {
      "input": {
        "account": "Testing Consultancy",
        "accountNumber": "001",
        "accountSite": "Not applicable",
        "annualRevenue": "1.000.001",
        "phonenumber": "+31(0)306012345",
        "fax": "+31(0)306056789",
        "website": "www.testing-consultancy.nl",
        "tickerSymbol": "Not applicable",
        "employees": "69",
        "sicCode": "4857",
        "labelTypeOfAccount": "Type",
        "typeOfAccount": "Prospect",
        "labelTypeOfIndustry": "Industry",
        "typeOfIndustry": "Banking",
        "labelOfRating": "Rating",
        "typeOfRating": "Hot",
        "labelOfOwnership": "Ownership",
        "typeOfOwnership": "Private",
        "labelOfCustomerPriority": "Customer Priority",
        "typeOfCustomerPriority": "High",
        "labelOfActive": "Active",
        "typeOfActive": "Yes",
        "labelOfSLA": "SLA",
        "typeOfSLA": "Platinum",
        "labelOfUpsellOpportunity": "Upsell Opportunity",
        "typeOfUpsellOpportunity": "Maybe",
        "numberOfLocations": "1",
        "slaSerialNumber": "10",
        "accountsDescription": "The number 1 leading consultancy agency of the world."
  
      },
  
      "billingAddress": {
        "billingAddress": "BillingAddress",
        "address": "Korte Jan achernaamstraat 13",
        "postalCode": "5623 AD",
        "city": "Meppel",
        "province": "Drenthe",
        "country": "the Netherlands",
        "phonenumber2": "+31(0)306056789"
      },
  
      "shippingAddress": {
        "shippingAddress": "ShippingAddress",
        "address": "Korte Jan achernaamstraat 13",
        "postalCode": "5623 AD",
        "city": "Meppel",
        "province": "Drenthe",
        "country": "the Netherlands",
        "phonenumber2": "+31(0)306056789"
      },
  
      "output": {
        "connectWithYourCustomers": "Connect with Your Customers"
      }
    },
  
    "contacts": {}
  }